<svg width="24" height="15" viewBox="0 0 24 15" fill="none" xmlns="http://www.w3.org/2000/svg">
<path d="M15.3209 3.13874H13.6887L11.5991 0L7.42206 6.27421L6.25909 5.56939L0 14.971H23.1982L15.3209 3.13874ZM12.961 4.4974H14.5932L19.1241 11.3032L13.7176 7.18927L11.5616 8.78308L8.58507 6.97904L11.5991 2.45171L12.961 4.4974ZM19.9152 13.6123H14.2445L12.4516 9.81471L13.7058 8.88756L19.9152 13.6123ZM6.66845 7.40616L11.0721 10.0751L12.742 13.6123H2.53676L6.66845 7.40616Z" fill="#1F1F1F"/>
</svg>
