<svg width="21" height="21" viewBox="0 0 21 21" fill="none" xmlns="http://www.w3.org/2000/svg">
<path d="M10.5067 16.7538L4.63504 20L5.75666 13.1245L1 8.25567L7.56419 7.25531L10.5 1L13.4358 7.25531L20 8.25567L15.2433 13.1245L16.365 20L10.5067 16.7538Z" fill="#F78705" stroke="#F78705" stroke-width="2" stroke-linecap="round" stroke-linejoin="round"/>
</svg>
